{
  "name": "Winstar Village Apartments",
  "originId": "cjbm1gd",
  "origin": "https://www.apartments.com/winstar-village-apartments-thackerville-ok/cjbm1gd/",
  "description": "Winstar Village is everything you have been waiting for in the Texoma area! We pride ourselves in professional management and offering the very finest in Apartment Living. Our expansive community offers a Central Park with walking trails, and Clubhouse for entertaining. Enjoy the Clubroom for meetings or gatherings, play pool and enjoy snacks by the fireplace, or get fit in our Fitness Center. If movies or theatre setting is on your favorites list... WE HAVE THAT! Enjoy Thunder Basketball, Golf, Football, or take in a movie, we have plenty of seating for everyone. Enjoy Winstar Casino,less than a mile away, or zip on down I-35 to Dallas for the weekend. Winstar Village is THE Destination!",
  "floorPlans": [
    {
      "bedrooms": 1,
      "bathrooms": 1,
      "name": "A1",
      "unit": "",
      "available": "available-soon",
      "size": 660,
      "deposit": 0,
      "price": [
        639,
        709
      ]
    },
    {
      "bedrooms": 1,
      "bathrooms": 1,
      "name": "A2",
      "unit": "",
      "available": "available-soon",
      "size": 710,
      "deposit": 0,
      "price": [
        685,
        759
      ]
    },
    {
      "bedrooms": 2,
      "bathrooms": 2,
      "name": "B1",
      "unit": "",
      "available": "available-soon",
      "size": 895,
      "deposit": 0,
      "price": [
        777,
        969
      ]
    },
    {
      "bedrooms": 2,
      "bathrooms": 2,
      "name": "B2",
      "unit": "",
      "available": "available-soon",
      "size": 955,
      "deposit": 0,
      "price": [
        809,
        1009
      ]
    },
    {
      "bedrooms": 3,
      "bathrooms": 2,
      "name": "C1",
      "unit": "",
      "available": "available-soon",
      "size": 1310,
      "deposit": 0,
      "price": [
        1124,
        1320
      ]
    }
  ],
  "amenities": [
    {
      "category": "unique-features",
      "name": "custom",
      "title": "24 hour shuttle access to WinStar Casino"
    },
    {
      "category": "unique-features",
      "name": "custom",
      "title": "Breakfast Bar"
    },
    {
      "category": "unique-features",
      "name": "custom",
      "title": "Freeway Access"
    },
    {
      "category": "unique-features",
      "name": "custom",
      "title": "Gift Wrap Station"
    },
    {
      "category": "unique-features",
      "name": "custom",
      "title": "High Ceilings"
    },
    {
      "category": "unique-features",
      "name": "custom",
      "title": "Less than 1 Mile from Winstar Casino!"
    },
    {
      "category": "unique-features",
      "name": "custom",
      "title": "Linen Storage"
    },
    {
      "category": "unique-features",
      "name": "custom",
      "title": "Theatre Room"
    },
    {
      "category": "unique-features",
      "name": "custom",
      "title": "Wood Laminate flooring"
    },
    {
      "category": "services",
      "name": "package-service",
      "title": "Package Service"
    },
    {
      "category": "services",
      "name": "community-wide-wifi",
      "title": "Community-Wide WiFi"
    },
    {
      "category": "services",
      "name": "wi-fi-at-pool-and-clubhouse",
      "title": "Wi-Fi at Pool and Clubhouse"
    },
    {
      "category": "services",
      "name": "maintenance-on-site",
      "title": "Maintenance on site"
    },
    {
      "category": "services",
      "name": "property-manager-on-site",
      "title": "Property Manager on Site"
    },
    {
      "category": "services",
      "name": "24-hour-availability",
      "title": "24 Hour Availability"
    },
    {
      "category": "services",
      "name": "furnished-units-available",
      "title": "Furnished Units Available"
    },
    {
      "category": "services",
      "name": "renters-insurance-program",
      "title": "Renters Insurance Program"
    },
    {
      "category": "services",
      "name": "online-services",
      "title": "Online Services"
    },
    {
      "category": "services",
      "name": "planned-social-activities",
      "title": "Planned Social Activities"
    },
    {
      "category": "services",
      "name": "guest-apartment",
      "title": "Guest Apartment"
    },
    {
      "category": "interior",
      "name": "business-center",
      "title": "Business Center"
    },
    {
      "category": "interior",
      "name": "clubhouse",
      "title": "Clubhouse"
    },
    {
      "category": "interior",
      "name": "lounge",
      "title": "Lounge"
    },
    {
      "category": "interior",
      "name": "multi-use-room",
      "title": "Multi Use Room"
    },
    {
      "category": "interior",
      "name": "breakfastcoffee-concierge",
      "title": "Breakfast/Coffee Concierge"
    },
    {
      "category": "interior",
      "name": "conference-room",
      "title": "Conference Room"
    },
    {
      "category": "interior",
      "name": "corporate-suites",
      "title": "Corporate Suites"
    },
    {
      "category": "outdoor-space",
      "name": "courtyard",
      "title": "Courtyard"
    },
    {
      "category": "outdoor-space",
      "name": "grill",
      "title": "Grill"
    },
    {
      "category": "outdoor-space",
      "name": "picnic-area",
      "title": "Picnic Area"
    },
    {
      "category": "outdoor-space",
      "name": "balcony",
      "title": "Balcony"
    },
    {
      "category": "outdoor-space",
      "name": "patio",
      "title": "Patio"
    },
    {
      "category": "outdoor-space",
      "name": "porch",
      "title": "Porch"
    },
    {
      "category": "outdoor-space",
      "name": "deck",
      "title": "Deck"
    },
    {
      "category": "outdoor-space",
      "name": "grill",
      "title": "Grill"
    },
    {
      "category": "fitness-&-recreation",
      "name": "fitness-center",
      "title": "Fitness Center"
    },
    {
      "category": "fitness-&-recreation",
      "name": "pool",
      "title": "Pool"
    },
    {
      "category": "fitness-&-recreation",
      "name": "bike-storage",
      "title": "Bike Storage"
    },
    {
      "category": "fitness-&-recreation",
      "name": "basketball-court",
      "title": "Basketball Court"
    },
    {
      "category": "fitness-&-recreation",
      "name": "volleyball-court",
      "title": "Volleyball Court"
    },
    {
      "category": "fitness-&-recreation",
      "name": "walkingbiking-trails",
      "title": "Walking/Biking Trails"
    },
    {
      "category": "fitness-&-recreation",
      "name": "gameroom",
      "title": "Gameroom"
    },
    {
      "category": "fitness-&-recreation",
      "name": "media-centermovie-theatre",
      "title": "Media Center/Movie Theatre"
    },
    {
      "category": "features",
      "name": "high-speed-internet-access",
      "title": "High Speed Internet Access"
    },
    {
      "category": "features",
      "name": "wi-fi",
      "title": "Wi-Fi"
    },
    {
      "category": "features",
      "name": "washerdryer---in-unit",
      "title": "Washer/Dryer - In Unit"
    },
    {
      "category": "features",
      "name": "air-conditioning",
      "title": "Air Conditioning"
    },
    {
      "category": "features",
      "name": "heating",
      "title": "Heating"
    },
    {
      "category": "features",
      "name": "ceiling-fans",
      "title": "Ceiling Fans"
    },
    {
      "category": "features",
      "name": "cable-ready",
      "title": "Cable Ready"
    },
    {
      "category": "features",
      "name": "satellite-tv",
      "title": "Satellite TV"
    },
    {
      "category": "features",
      "name": "tubshower",
      "title": "Tub/Shower"
    },
    {
      "category": "features",
      "name": "handrails",
      "title": "Handrails"
    },
    {
      "category": "features",
      "name": "sprinkler-system",
      "title": "Sprinkler System"
    },
    {
      "category": "features",
      "name": "wheelchair-accessible-rooms",
      "title": "Wheelchair Accessible (Rooms)"
    },
    {
      "category": "kitchen",
      "name": "dishwasher",
      "title": "Dishwasher"
    },
    {
      "category": "kitchen",
      "name": "disposal",
      "title": "Disposal"
    },
    {
      "category": "kitchen",
      "name": "ice-maker",
      "title": "Ice Maker"
    },
    {
      "category": "kitchen",
      "name": "pantry",
      "title": "Pantry"
    },
    {
      "category": "kitchen",
      "name": "kitchen",
      "title": "Kitchen"
    },
    {
      "category": "kitchen",
      "name": "microwave",
      "title": "Microwave"
    },
    {
      "category": "kitchen",
      "name": "oven",
      "title": "Oven"
    },
    {
      "category": "kitchen",
      "name": "range",
      "title": "Range"
    },
    {
      "category": "kitchen",
      "name": "refrigerator",
      "title": "Refrigerator"
    },
    {
      "category": "kitchen",
      "name": "freezer",
      "title": "Freezer"
    },
    {
      "category": "kitchen",
      "name": "instant-hot-water",
      "title": "Instant Hot Water"
    },
    {
      "category": "living-space",
      "name": "hardwood-floors",
      "title": "Hardwood Floors"
    },
    {
      "category": "living-space",
      "name": "carpet",
      "title": "Carpet"
    },
    {
      "category": "living-space",
      "name": "vinyl-flooring",
      "title": "Vinyl Flooring"
    },
    {
      "category": "living-space",
      "name": "dining-room",
      "title": "Dining Room"
    },
    {
      "category": "living-space",
      "name": "views",
      "title": "Views"
    },
    {
      "category": "living-space",
      "name": "walk-in-closets",
      "title": "Walk-In Closets"
    },
    {
      "category": "living-space",
      "name": "furnished",
      "title": "Furnished"
    },
    {
      "category": "living-space",
      "name": "double-pane-windows",
      "title": "Double Pane Windows"
    },
    {
      "category": "security",
      "name": "package-service",
      "title": "Package Service"
    },
    {
      "category": "security",
      "name": "property-manager-on-site",
      "title": "Property Manager on Site"
    }
  ],
  "expenses": [
    {
      "type": "recurring",
      "name": "Cat Rent",
      "price": "$10"
    },
    {
      "type": "recurring",
      "name": "Dog Rent",
      "price": "$10"
    },
    {
      "type": "one-time",
      "name": "Admin Fee",
      "price": "$100"
    },
    {
      "type": "one-time",
      "name": "Application Fee",
      "price": "$40"
    },
    {
      "type": "one-time",
      "name": "Cat Fee",
      "price": "$400"
    },
    {
      "type": "one-time",
      "name": "Dog Fee",
      "price": "$400"
    },
    {
      "type": "utilities-included",
      "name": "Trash Removal",
      "price": "Included"
    }
  ],
  "languages": [
    "English"
  ],
  "officeHours": [
    {
      "dayOfWeek": [
        "Monday",
        "Tuesday",
        "Wednesday",
        "Thursday",
        "Friday"
      ],
      "opens": "09:00:00",
      "closes": "18:00:00"
    },
    {
      "dayOfWeek": [
        "Saturday"
      ],
      "opens": "10:00:00",
      "closes": "16:00:00"
    }
  ],
  "location": {
    "coord": {
      "type": "Point",
      "coordinates": [
        33.77088,
        -97.12735
      ]
    },
    "country": "us",
    "locality": "20264 Tabler Rd",
    "city": "Thackerville",
    "state": "OK",
    "zipCode": "73459"
  },
  "photos": [
    {
      "src": "https://images1.apartments.com/i2/W3qcEWDYujbT-Goc1CtTRgiqXGqYYV9rJDvfJC0TaNA/111/winstar-village-apartments-thackerville-ok-primary-photo.jpg",
      "thumbnail": "https://images1.apartments.com/i2/W3qcEWDYujbT-Goc1CtTRgiqXGqYYV9rJDvfJC0TaNA/117/winstar-village-apartments-thackerville-ok-primary-photo.jpg",
      "description": "Winstar Village Apartments",
      "mediaType": 1,
      "attachmentType": 3,
      "altText": "Primary Photo - Winstar Village Apartments"
    },
    {
      "src": "https://images1.apartments.com/m2/XTGS4dLaIjsMJIF4fLmz2xGcAUM8wAkEPCmLPByqK2EMUMt1fFcBzK6ts8YyjUEGrQbxv6Dwmo-6tUyxiWfGIA/H600W900/winstar-village-apartments-thackerville-ok-map-image-of-the-property.jpg",
      "thumbnail": "https://images1.apartments.com/m2/XTGS4dLaIjsMJIF4fLmz2xGcAUM8wAkEPCmLPByqK2EMUMt1fFcBzK6ts8YyjUEGrQbxv6Dwmo-6tUyxiWfGIA/H240W360/winstar-village-apartments-thackerville-ok-map-image-of-the-property.jpg",
      "description": "Map image of the property",
      "mediaType": 1,
      "attachmentType": 16,
      "altText": "Map image of the property - Winstar Village Apartments"
    },
    {
      "src": "https://images1.apartments.com/i2/pk0_eBJ4EkLow3SBgP_7PAjLWuhRpLmu8eI_0p7B98c/111/winstar-village-apartments-thackerville-ok-site-map.jpg",
      "thumbnail": "https://images1.apartments.com/i2/pk0_eBJ4EkLow3SBgP_7PAjLWuhRpLmu8eI_0p7B98c/117/winstar-village-apartments-thackerville-ok-site-map.jpg",
      "description": "Site Map",
      "mediaType": 1,
      "attachmentType": 4,
      "altText": "Site Map - Winstar Village Apartments"
    },
    {
      "src": "https://images1.apartments.com/i2/tTwO3M3aqSzN1WkU9cod1AslMpSZ7KZxfu-EZ9iRTNY/111/winstar-village-apartments-thackerville-ok-media-room.jpg",
      "thumbnail": "https://images1.apartments.com/i2/tTwO3M3aqSzN1WkU9cod1AslMpSZ7KZxfu-EZ9iRTNY/117/winstar-village-apartments-thackerville-ok-media-room.jpg",
      "description": "Media Room",
      "mediaType": 1,
      "attachmentType": 4,
      "altText": "Media Room - Winstar Village Apartments"
    },
    {
      "src": "https://images1.apartments.com/i2/CFb0iqV6FtLMxE0LpEFHFqjsv_ttFed8tWyH3aiDtng/111/winstar-village-apartments-thackerville-ok-media-room.jpg",
      "thumbnail": "https://images1.apartments.com/i2/CFb0iqV6FtLMxE0LpEFHFqjsv_ttFed8tWyH3aiDtng/117/winstar-village-apartments-thackerville-ok-media-room.jpg",
      "description": "Media Room",
      "mediaType": 1,
      "attachmentType": 4,
      "altText": "Media Room - Winstar Village Apartments"
    },
    {
      "src": "https://images1.apartments.com/i2/1XYuRESJRO1S3mS2yfaMp0rQt948hnDFwJj0WStqUkI/111/winstar-village-apartments-thackerville-ok-media-room.jpg",
      "thumbnail": "https://images1.apartments.com/i2/1XYuRESJRO1S3mS2yfaMp0rQt948hnDFwJj0WStqUkI/117/winstar-village-apartments-thackerville-ok-media-room.jpg",
      "description": "Media Room",
      "mediaType": 1,
      "attachmentType": 4,
      "altText": "Media Room - Winstar Village Apartments"
    },
    {
      "src": "https://images1.apartments.com/i2/7ehfbA5IdoGD5kh2-BL88Kwn0qH3rulGXsu61sesoFU/111/winstar-village-apartments-thackerville-ok-coffee-bar.jpg",
      "thumbnail": "https://images1.apartments.com/i2/7ehfbA5IdoGD5kh2-BL88Kwn0qH3rulGXsu61sesoFU/117/winstar-village-apartments-thackerville-ok-coffee-bar.jpg",
      "description": "Coffee Bar",
      "mediaType": 1,
      "attachmentType": 4,
      "altText": "Coffee Bar - Winstar Village Apartments"
    },
    {
      "src": "https://images1.apartments.com/i2/lPSl1O_ySdtLTEmhN57CMOndhAwfRKfyx-o6Z8FShSs/111/winstar-village-apartments-thackerville-ok-gift-wrapping-station.jpg",
      "thumbnail": "https://images1.apartments.com/i2/lPSl1O_ySdtLTEmhN57CMOndhAwfRKfyx-o6Z8FShSs/117/winstar-village-apartments-thackerville-ok-gift-wrapping-station.jpg",
      "description": "Gift Wrapping Station",
      "mediaType": 1,
      "attachmentType": 4,
      "altText": "Gift Wrapping Station - Winstar Village Apartments"
    },
    {
      "src": "https://images1.apartments.com/i2/Hu86bJguJim3DMO3crJR6WSrbxqg34gmSCygNrKTGRs/111/winstar-village-apartments-thackerville-ok-library.jpg",
      "thumbnail": "https://images1.apartments.com/i2/Hu86bJguJim3DMO3crJR6WSrbxqg34gmSCygNrKTGRs/117/winstar-village-apartments-thackerville-ok-library.jpg",
      "description": "Library",
      "mediaType": 1,
      "attachmentType": 4,
      "altText": "Library - Winstar Village Apartments"
    },
    {
      "src": "https://images1.apartments.com/i2/7LJc36JU9lD41yjh02QfX2ksmxP6dimXRJuzeF1EIj8/111/winstar-village-apartments-thackerville-ok-volleyball-court.jpg",
      "thumbnail": "https://images1.apartments.com/i2/7LJc36JU9lD41yjh02QfX2ksmxP6dimXRJuzeF1EIj8/117/winstar-village-apartments-thackerville-ok-volleyball-court.jpg",
      "description": "Volleyball Court",
      "mediaType": 1,
      "attachmentType": 4,
      "altText": "Volleyball Court - Winstar Village Apartments"
    },
    {
      "src": "https://images1.apartments.com/i2/JiCY9Xq9AJ1EBqXWSlU3SSOHHDDuQ_s8YDp_hUWxR40/111/winstar-village-apartments-thackerville-ok-pool-table.jpg",
      "thumbnail": "https://images1.apartments.com/i2/JiCY9Xq9AJ1EBqXWSlU3SSOHHDDuQ_s8YDp_hUWxR40/117/winstar-village-apartments-thackerville-ok-pool-table.jpg",
      "description": "Pool Table",
      "mediaType": 1,
      "attachmentType": 4,
      "altText": "Pool Table - Winstar Village Apartments"
    },
    {
      "src": "https://images1.apartments.com/i2/0nfw4uSkflvlGlzKU1k4XVSuyzhGhliQoo290Shs68I/111/winstar-village-apartments-thackerville-ok-closet.jpg",
      "thumbnail": "https://images1.apartments.com/i2/0nfw4uSkflvlGlzKU1k4XVSuyzhGhliQoo290Shs68I/117/winstar-village-apartments-thackerville-ok-closet.jpg",
      "description": "Closet",
      "mediaType": 1,
      "attachmentType": 4,
      "altText": "Closet - Winstar Village Apartments"
    },
    {
      "src": "https://images1.apartments.com/i2/bXppyEwtTY8REZKEOItigyaqoemZBHWrOGDQB3z2zh8/111/winstar-village-apartments-thackerville-ok-kitchen.jpg",
      "thumbnail": "https://images1.apartments.com/i2/bXppyEwtTY8REZKEOItigyaqoemZBHWrOGDQB3z2zh8/117/winstar-village-apartments-thackerville-ok-kitchen.jpg",
      "description": "Kitchen",
      "mediaType": 1,
      "attachmentType": 4,
      "altText": "Kitchen - Winstar Village Apartments"
    },
    {
      "src": "https://images1.apartments.com/i2/fWfG88zwQ_3SfyJBEC3PyHisKASRJuRTVJD98Ym15IA/111/winstar-village-apartments-thackerville-ok-front-sign.jpg",
      "thumbnail": "https://images1.apartments.com/i2/fWfG88zwQ_3SfyJBEC3PyHisKASRJuRTVJD98Ym15IA/117/winstar-village-apartments-thackerville-ok-front-sign.jpg",
      "description": "Front Sign",
      "mediaType": 1,
      "attachmentType": 4,
      "altText": "Front Sign - Winstar Village Apartments"
    },
    {
      "src": "https://images1.apartments.com/i2/ci5_J_iVCHy9PkuPTldQ02bI7jq6XxCvlrrZFYKK7SA/111/winstar-village-apartments-thackerville-ok-building-photo.jpg",
      "thumbnail": "https://images1.apartments.com/i2/ci5_J_iVCHy9PkuPTldQ02bI7jq6XxCvlrrZFYKK7SA/117/winstar-village-apartments-thackerville-ok-building-photo.jpg",
      "mediaType": 1,
      "attachmentType": 4,
      "altText": "Building Photo - Winstar Village Apartments"
    },
    {
      "src": "https://images1.apartments.com/i2/gGx6tQSJtEvGIJrHP0L0OcGhGKQqgMk6TDWEHzR2jYc/111/winstar-village-apartments-thackerville-ok-building-photo.jpg",
      "thumbnail": "https://images1.apartments.com/i2/gGx6tQSJtEvGIJrHP0L0OcGhGKQqgMk6TDWEHzR2jYc/117/winstar-village-apartments-thackerville-ok-building-photo.jpg",
      "mediaType": 1,
      "attachmentType": 4,
      "altText": "Building Photo - Winstar Village Apartments"
    },
    {
      "src": "https://images1.apartments.com/i2/N2Uc-DfRGtSSS82o8tzoQrRP56E5JzSbYb7S-B2MqAo/111/winstar-village-apartments-thackerville-ok-building-photo.jpg",
      "thumbnail": "https://images1.apartments.com/i2/N2Uc-DfRGtSSS82o8tzoQrRP56E5JzSbYb7S-B2MqAo/117/winstar-village-apartments-thackerville-ok-building-photo.jpg",
      "mediaType": 1,
      "attachmentType": 4,
      "altText": "Building Photo - Winstar Village Apartments"
    },
    {
      "src": "https://images1.apartments.com/i2/_J27ziHAOc_M2sG0kzvb5tQwzTHEivSddXHSsE5QfgI/111/winstar-village-apartments-thackerville-ok-building-photo.jpg",
      "thumbnail": "https://images1.apartments.com/i2/_J27ziHAOc_M2sG0kzvb5tQwzTHEivSddXHSsE5QfgI/117/winstar-village-apartments-thackerville-ok-building-photo.jpg",
      "mediaType": 1,
      "attachmentType": 4,
      "altText": "Building Photo - Winstar Village Apartments"
    },
    {
      "src": "https://images1.apartments.com/i2/_pN17U9VCyB907dleoyzVLBsNy3F2j6DYMTanFYuxWo/111/winstar-village-apartments-thackerville-ok-building-photo.jpg",
      "thumbnail": "https://images1.apartments.com/i2/_pN17U9VCyB907dleoyzVLBsNy3F2j6DYMTanFYuxWo/117/winstar-village-apartments-thackerville-ok-building-photo.jpg",
      "mediaType": 1,
      "attachmentType": 4,
      "altText": "Building Photo - Winstar Village Apartments"
    },
    {
      "src": "https://images1.apartments.com/i2/Y57oVRoqiU6DNkYzMHjMLuxvLZK4nti11eX5PYt17ZQ/111/winstar-village-apartments-thackerville-ok-building-photo.jpg",
      "thumbnail": "https://images1.apartments.com/i2/Y57oVRoqiU6DNkYzMHjMLuxvLZK4nti11eX5PYt17ZQ/117/winstar-village-apartments-thackerville-ok-building-photo.jpg",
      "mediaType": 1,
      "attachmentType": 4,
      "altText": "Building Photo - Winstar Village Apartments"
    },
    {
      "src": "https://images1.apartments.com/i2/evZJtNu58GJ8wimDlwBsDFebgFem0tlUJa3DSp3hq_w/111/winstar-village-apartments-thackerville-ok-building-photo.jpg",
      "thumbnail": "https://images1.apartments.com/i2/evZJtNu58GJ8wimDlwBsDFebgFem0tlUJa3DSp3hq_w/117/winstar-village-apartments-thackerville-ok-building-photo.jpg",
      "mediaType": 1,
      "attachmentType": 4,
      "altText": "Building Photo - Winstar Village Apartments"
    },
    {
      "src": "https://images1.apartments.com/i2/IGLwjGgK1KFtahhFvpabx6MyfoNsw8ijUBudK41C-Vk/111/winstar-village-apartments-thackerville-ok-building-photo.jpg",
      "thumbnail": "https://images1.apartments.com/i2/IGLwjGgK1KFtahhFvpabx6MyfoNsw8ijUBudK41C-Vk/117/winstar-village-apartments-thackerville-ok-building-photo.jpg",
      "mediaType": 1,
      "attachmentType": 4,
      "altText": "Building Photo - Winstar Village Apartments"
    },
    {
      "src": "https://images1.apartments.com/i2/5gWRe09vPRcBjFtYjssZNg7YMWJ47USSRr9JTImo5Qk/111/winstar-village-apartments-thackerville-ok-building-photo.jpg",
      "thumbnail": "https://images1.apartments.com/i2/5gWRe09vPRcBjFtYjssZNg7YMWJ47USSRr9JTImo5Qk/117/winstar-village-apartments-thackerville-ok-building-photo.jpg",
      "mediaType": 1,
      "attachmentType": 4,
      "altText": "Building Photo - Winstar Village Apartments"
    },
    {
      "src": "https://images1.apartments.com/i2/JE64O2SxuNW1bHa9WXWZ_5ZlkeJxUjmrSrLqDx0yBGY/111/winstar-village-apartments-thackerville-ok-building-photo.jpg",
      "thumbnail": "https://images1.apartments.com/i2/JE64O2SxuNW1bHa9WXWZ_5ZlkeJxUjmrSrLqDx0yBGY/117/winstar-village-apartments-thackerville-ok-building-photo.jpg",
      "mediaType": 1,
      "attachmentType": 4,
      "altText": "Building Photo - Winstar Village Apartments"
    },
    {
      "src": "https://images1.apartments.com/i2/hoMliuCm_RMgbG3MVJ_PhX8AO2TqxxSbTsB1jYacgZE/111/winstar-village-apartments-thackerville-ok-building-photo.jpg",
      "thumbnail": "https://images1.apartments.com/i2/hoMliuCm_RMgbG3MVJ_PhX8AO2TqxxSbTsB1jYacgZE/117/winstar-village-apartments-thackerville-ok-building-photo.jpg",
      "mediaType": 1,
      "attachmentType": 4,
      "altText": "Building Photo - Winstar Village Apartments"
    }
  ]
}